module github.com/domainr/whoistest

go 1.14

require (
	github.com/domainr/whois v0.0.0-20180714175948-975c7833b02e
	github.com/nbio/st v0.0.0-20140626010706-e9e8d9816f32
	github.com/saintfish/chardet v0.0.0-20120816061221-3af4cd4741ca // indirect
	github.com/wsxiaoys/terminal v0.0.0-20160513160801-0940f3fc43a0
	github.com/zonedb/zonedb v1.0.2821
	golang.org/x/net v0.0.0-20200707034311-ab3426394381
)
